               precision    recall  f1-score   support

        apple      0.653     0.660     0.657       100
aquarium_fish      0.353     0.410     0.380       100
         baby      0.222     0.220     0.221       100
         bear      0.192     0.200     0.196       100
       beaver      0.161     0.180     0.170       100
          bed      0.308     0.280     0.293       100
          bee      0.313     0.260     0.284       100
       beetle      0.388     0.330     0.357       100
      bicycle      0.420     0.370     0.394       100
       bottle      0.423     0.410     0.416       100
         bowl      0.206     0.140     0.167       100
          boy      0.177     0.170     0.173       100
       bridge      0.327     0.340     0.333       100
          bus      0.340     0.320     0.330       100
    butterfly      0.266     0.210     0.235       100
        camel      0.207     0.170     0.187       100
          can      0.353     0.410     0.380       100
       castle      0.432     0.540     0.480       100
  caterpillar      0.272     0.220     0.243       100
       cattle      0.264     0.230     0.246       100
        chair      0.653     0.620     0.636       100
   chimpanzee      0.424     0.500     0.459       100
        clock      0.327     0.320     0.323       100
        cloud      0.581     0.540     0.560       100
    cockroach      0.548     0.630     0.586       100
        couch      0.245     0.250     0.248       100
         crab      0.303     0.300     0.302       100
    crocodile      0.217     0.260     0.236       100
          cup      0.419     0.490     0.452       100
     dinosaur      0.365     0.350     0.357       100
      dolphin      0.280     0.330     0.303       100
     elephant      0.307     0.310     0.308       100
     flatfish      0.253     0.250     0.251       100
       forest      0.376     0.380     0.378       100
          fox      0.226     0.240     0.233       100
         girl      0.135     0.140     0.137       100
      hamster      0.354     0.340     0.347       100
        house      0.183     0.170     0.176       100
     kangaroo      0.178     0.160     0.168       100
     keyboard      0.410     0.410     0.410       100
         lamp      0.326     0.280     0.301       100
   lawn_mower      0.695     0.570     0.626       100
      leopard      0.252     0.260     0.256       100
         lion      0.319     0.370     0.343       100
       lizard      0.162     0.120     0.138       100
      lobster      0.225     0.230     0.228       100
          man      0.194     0.190     0.192       100
   maple_tree      0.517     0.460     0.487       100
   motorcycle      0.496     0.570     0.530       100
     mountain      0.484     0.440     0.461       100
        mouse      0.174     0.150     0.161       100
     mushroom      0.340     0.320     0.330       100
     oak_tree      0.491     0.570     0.528       100
       orange      0.469     0.600     0.526       100
       orchid      0.420     0.470     0.443       100
        otter      0.110     0.110     0.110       100
    palm_tree      0.478     0.430     0.453       100
         pear      0.276     0.240     0.257       100
 pickup_truck      0.389     0.420     0.404       100
    pine_tree      0.323     0.310     0.316       100
        plain      0.670     0.710     0.689       100
        plate      0.475     0.480     0.478       100
        poppy      0.413     0.450     0.431       100
    porcupine      0.356     0.310     0.332       100
       possum      0.140     0.140     0.140       100
       rabbit      0.174     0.190     0.182       100
      raccoon      0.287     0.270     0.278       100
          ray      0.352     0.310     0.330       100
         road      0.633     0.690     0.660       100
       rocket      0.575     0.610     0.592       100
         rose      0.364     0.390     0.377       100
          sea      0.562     0.590     0.576       100
         seal      0.100     0.110     0.105       100
        shark      0.311     0.320     0.315       100
        shrew      0.233     0.240     0.236       100
        skunk      0.567     0.590     0.578       100
   skyscraper      0.528     0.650     0.583       100
        snail      0.247     0.240     0.244       100
        snake      0.175     0.170     0.173       100
       spider      0.275     0.280     0.277       100
     squirrel      0.118     0.120     0.119       100
    streetcar      0.340     0.330     0.335       100
    sunflower      0.602     0.650     0.625       100
 sweet_pepper      0.265     0.260     0.263       100
        table      0.213     0.190     0.201       100
         tank      0.381     0.370     0.376       100
    telephone      0.362     0.420     0.389       100
   television      0.325     0.370     0.346       100
        tiger      0.207     0.170     0.187       100
      tractor      0.321     0.350     0.335       100
        train      0.298     0.280     0.289       100
        trout      0.429     0.420     0.424       100
        tulip      0.273     0.240     0.255       100
       turtle      0.154     0.140     0.147       100
     wardrobe      0.551     0.590     0.570       100
        whale      0.392     0.380     0.386       100
  willow_tree      0.405     0.340     0.370       100
         wolf      0.248     0.300     0.271       100
        woman      0.171     0.180     0.176       100
         worm      0.287     0.290     0.289       100

     accuracy                          0.343     10000
    macro avg      0.340     0.343     0.340     10000
 weighted avg      0.340     0.343     0.340     10000
