epoch,accuracy,loss,val_accuracy,val_loss
0,0.2965,2.711710724182129,0.1202,2.285654412841797
1,0.41316,1.8298488921356202,0.1098,2.2998325962066652
2,0.46184,1.620454916191101,0.1102,2.3856054859161375
3,0.49758,1.467933677597046,0.1792,2.273942052459717
4,0.5292,1.3523854270553588,0.2226,2.2673401035308838
5,0.54178,1.31820000705719,0.2523,2.151572435379028
6,0.56696,1.2428496905899047,0.3158,2.0149135749816893
7,0.58782,1.177215086479187,0.379,1.773097091293335
8,0.59984,1.142025306854248,0.4404,1.5846364364624024
9,0.61688,1.0913489387512207,0.4943,1.4408395357131958
10,0.63054,1.0512875875854493,0.5599,1.2649586534500121
11,0.64672,1.0107270873069762,0.5622,1.2365212646484376
12,0.64766,1.0075205404663086,0.5905,1.1692317472457885
13,0.66214,0.9704505393600464,0.5561,1.2957853858947754
14,0.67804,0.9341697635650634,0.6179,1.0862503885269166
15,0.68492,0.9072189390182495,0.6148,1.096747701072693
16,0.6912,0.8864834145355225,0.6121,1.1043221273422241
17,0.69828,0.8679684034347535,0.6155,1.0900509035110473
18,0.70996,0.8423029227638245,0.612,1.127587840461731
19,0.71716,0.8214512881088257,0.5392,1.3878968294143676
20,0.72732,0.7987754454803466,0.604,1.1214025327682495
21,0.73438,0.7751686305427551,0.6263,1.072712968635559
22,0.73638,0.7682219156837463,0.6419,1.0229866619110108
23,0.74572,0.7410233016204834,0.6086,1.146918374824524
24,0.755,0.7203753844261169,0.6438,1.0152108926773071
25,0.76586,0.6913187509727478,0.6368,1.0365547275543212
26,0.77722,0.6674384920310974,0.6267,1.0647507400512695
27,0.7764,0.6635489709281921,0.5967,1.2116063409805298
28,0.78596,0.6378015144729614,0.5954,1.1806490068435669
29,0.79034,0.6257609775924683,0.618,1.1107690031051636
30,0.8006,0.6040904754829407,0.5991,1.190124284172058
31,0.80754,0.5816595492744446,0.6342,1.0591619913101196
32,0.8151,0.5650272920799255,0.6495,1.0185581909179688
33,0.82564,0.5370607818984985,0.6479,1.0366746124267578
34,0.82728,0.5271823768234253,0.6231,1.092685115623474
35,0.8432,0.5027572331428528,0.624,1.1421270990371704
36,0.84976,0.4803352059173584,0.6364,1.071875197982788
37,0.85738,0.4617618702507019,0.6353,1.0781210060119628
38,0.86936,0.4375714197921753,0.6673,0.9695278818130493
39,0.8733,0.42471483597755433,0.6292,1.1188591856002807
40,0.8872,0.3970514957237244,0.6549,1.0425087902069092
41,0.89406,0.3806528473472595,0.6687,0.9782436569213867
42,0.90384,0.36037767038345336,0.6553,1.0265586715698243
43,0.91338,0.3373469647884369,0.5837,1.3344220308303834
44,0.91782,0.32499851126670837,0.6508,1.0605142360687256
45,0.926,0.3040828785896301,0.6647,1.0338902557373046
46,0.93222,0.28968820599555967,0.6639,1.0529586387634278
47,0.94374,0.2672037145423889,0.6653,1.0180464557647706
48,0.94762,0.25728712265968323,0.6558,1.0346387649536133
49,0.96076,0.22996762297153472,0.6645,1.0221770248413087
50,0.96186,0.2228858960056305,0.6699,1.0083962136268616
51,0.9708,0.20261339861869812,0.6711,1.0308399122238159
52,0.97402,0.18923448575019836,0.6724,1.0150742208480834
53,0.97796,0.17788022176742554,0.6751,1.016270001888275
54,0.98338,0.16348974371433259,0.665,1.0382844625473022
55,0.98632,0.1516135516834259,0.6799,1.0077979797363281
56,0.9892,0.14114840008735657,0.67,1.0152665510177612
57,0.99122,0.13288925558567047,0.6707,1.037969306564331
58,0.9926,0.1231963802075386,0.674,1.035465850830078
59,0.9943,0.11518220488786697,0.6783,1.0214887250900269
60,0.99518,0.10684519439935684,0.6771,1.031536555671692
61,0.99664,0.0983297131562233,0.6772,1.0460253845214844
62,0.99754,0.09216019928216934,0.6718,1.0737346950531006
63,0.99792,0.08716146356344223,0.6781,1.0497789752960205
64,0.9984,0.08103184620380402,0.6763,1.0468265060424804
65,0.99854,0.07777576883077622,0.6813,1.0433264945983887
66,0.99912,0.07190397245645523,0.6775,1.0600534200668335
67,0.99936,0.06781179574728012,0.6798,1.0675172967910767
68,0.99948,0.06371248614311219,0.6786,1.0713383279800415
69,0.99964,0.06060480984687805,0.6823,1.0573132398605347
70,0.99972,0.056781266918182374,0.6838,1.0715759283065796
71,0.99982,0.05352909587025642,0.6802,1.0710639240264892
72,0.99982,0.0515340641117096,0.6791,1.0816220951080322
73,0.99988,0.04903384648561478,0.6785,1.077125710105896
74,0.99994,0.0463908057653904,0.6817,1.086628042793274
75,0.99994,0.04445784326672554,0.6829,1.0849862089157105
76,1.0,0.04272948777914047,0.6838,1.0870504497528075
77,0.99998,0.0408708661043644,0.6827,1.0882652408599853
78,1.0,0.038833616120815276,0.686,1.0959871276855468
79,1.0,0.037430080432891845,0.6849,1.097595217704773
80,1.0,0.0363282033097744,0.6864,1.095017988395691
81,1.0,0.03463444287419319,0.6858,1.0979078474044799
82,1.0,0.033261614673137666,0.6841,1.1009786031723023
83,1.0,0.032152039959430695,0.6831,1.1087355543136597
84,1.0,0.03097431706547737,0.6836,1.1079441150665283
85,1.0,0.029995654821395875,0.6849,1.10770177154541
86,1.0,0.0288679718708992,0.6835,1.1185545154571532
87,1.0,0.027890551401376723,0.6848,1.1139571077346802
88,1.0,0.02716663927912712,0.6847,1.1208514919281005
89,1.0,0.026167646319270134,0.6849,1.1202585607528686
90,1.0,0.025441623675227166,0.6865,1.1268409427642823
91,1.0,0.02480796242594719,0.6843,1.125157912826538
92,1.0,0.02394959140717983,0.6863,1.128343411254883
93,1.0,0.023348652340769768,0.6837,1.1310220979690553
94,1.0,0.022712637684941292,0.6856,1.1354152849197388
95,1.0,0.022059975816011428,0.6842,1.1355757690429686
96,1.0,0.02130273598372936,0.6848,1.1354362922668457
97,1.0,0.02092434509396553,0.6861,1.1354335350036622
98,1.0,0.02029499352157116,0.6856,1.1373284866333009
99,1.0,0.019930634806752206,0.6837,1.150156381225586
