Model: "model_1"
__________________________________________________________________________________________________
Layer (type)                    Output Shape         Param #     Connected to                     
==================================================================================================
input_1 (InputLayer)            [(None, 32, 32, 3)]  0                                            
__________________________________________________________________________________________________
vgg_module (VGGModule)          (None, 32, 32, 16)   5088        input_1[0][0]                    
__________________________________________________________________________________________________
inception_module_v1 (InceptionM (None, 32, 32, 16)   760         input_1[0][0]                    
__________________________________________________________________________________________________
spades_layer_3 (SpadesLayer)    (None, 32, 32, 16)   2           vgg_module[1][0]                 
                                                                 inception_module_v1[1][0]        
__________________________________________________________________________________________________
batch_normalization (BatchNorma (None, 32, 32, 16)   64          spades_layer_3[0][0]             
__________________________________________________________________________________________________
max_pooling2d (MaxPooling2D)    (None, 16, 16, 16)   0           batch_normalization[1][0]        
__________________________________________________________________________________________________
vgg_module_1 (VGGModule)        (None, 16, 16, 64)   83136       max_pooling2d[1][0]              
__________________________________________________________________________________________________
inception_module_v1_1 (Inceptio (None, 16, 16, 64)   13244       max_pooling2d[1][0]              
__________________________________________________________________________________________________
spades_layer_4 (SpadesLayer)    (None, 16, 16, 64)   2           vgg_module_1[1][0]               
                                                                 inception_module_v1_1[1][0]      
__________________________________________________________________________________________________
batch_normalization_1 (BatchNor (None, 16, 16, 64)   256         spades_layer_4[0][0]             
__________________________________________________________________________________________________
max_pooling2d_1 (MaxPooling2D)  (None, 8, 8, 64)     0           batch_normalization_1[1][0]      
__________________________________________________________________________________________________
vgg_module_2 (VGGModule)        (None, 8, 8, 256)    1327872     max_pooling2d_1[1][0]            
__________________________________________________________________________________________________
batch_normalization_2 (BatchNor (None, 8, 8, 256)    1024        vgg_module_2[1][0]               
__________________________________________________________________________________________________
max_pooling2d_2 (MaxPooling2D)  (None, 4, 4, 256)    0           batch_normalization_2[1][0]      
__________________________________________________________________________________________________
flatten (Flatten)               (None, 4096)         0           max_pooling2d_2[1][0]            
__________________________________________________________________________________________________
dense (Dense)                   (None, 10)           40970       flatten[1][0]                    
==================================================================================================
Total params: 1,472,418
Trainable params: 1,471,746
Non-trainable params: 672
__________________________________________________________________________________________________
